@startuml
participant ":Principal" as p
participant ":Finestra" as f
participant ":Contenidor" as c
participant ":Component" as comp
participant ":Object" as o

activate p

p -> f: "1: new Finestra(...)"
activate f
f -> c: "2: new Contenidor(...)"
activate c
c -> comp: "3: new Component(...)"
activate comp
comp -> o: "4: new Object()"
note right
Inicialitzacions
específiques
d'Object
end note
activate o
comp <-- o
deactivate o
c <-- comp
note right
Inicialitzacions
específiques de
Component
end note
deactivate comp
f <-- c
note right
Inicialitzacions
específiques de
Contenidor
end note
deactivate c
p <-- f
note right
Inicialitzacions
específiques de
Finestra
end note
deactivate f
...
@enduml
